<svg width="14" height="21" viewBox="0 0 14 21" fill="none" xmlns="http://www.w3.org/2000/svg">
<path d="M7 0.590576C3.13 0.590576 0 3.72058 0 7.59058C0 12.8406 7 20.5906 7 20.5906C7 20.5906 14 12.8406 14 7.59058C14 3.72058 10.87 0.590576 7 0.590576ZM7 10.0906C5.62 10.0906 4.5 8.97058 4.5 7.59058C4.5 6.21058 5.62 5.09058 7 5.09058C8.38 5.09058 9.5 6.21058 9.5 7.59058C9.5 8.97058 8.38 10.0906 7 10.0906Z" fill="white"/>
</svg>
