<svg width="50" height="44" viewBox="0 0 50 44" fill="none" xmlns="http://www.w3.org/2000/svg">
<path d="M0.0304996 42.8311C0.0291442 43.0497 0.101821 43.2624 0.236944 43.4348L0.23694 43.4348L0.237749 43.4359C0.425037 43.6707 0.710478 43.8067 1.01158 43.8054C1.01184 43.8054 1.0121 43.8053 1.01236 43.8053L42.5635 43.8054C43.0234 43.8176 43.4312 43.5106 43.5421 43.0656L43.5423 43.065L49.6922 17.917C49.8848 17.1368 49.706 16.3122 49.2072 15.6795L49.2071 15.6793C48.7006 15.0385 47.9228 14.6676 47.1024 14.675H44.3776V8.23526C44.3776 6.33145 42.8209 4.79036 40.9033 4.79036H20.3261C19.9254 4.78859 19.542 4.62945 19.2599 4.34815L19.2596 4.34783L16.5669 1.67896L16.5662 1.67826C15.9112 1.03765 15.0297 0.676586 14.1102 0.671747H14.1094H3.50481C1.58727 0.671747 0.0304996 2.21283 0.0304996 4.11664V42.8311ZM0.0304996 42.8311C0.0305007 42.831 0.0305018 42.8308 0.030503 42.8306L0.1805 42.8316M0.0304996 42.8311V42.8316H0.1805M0.1805 42.8316C0.179253 43.0164 0.240649 43.1963 0.355026 43.3423L3.50481 0.821747C1.66886 0.821747 0.1805 2.29693 0.1805 4.11664V42.8316ZM47.7386 17.4584L47.7387 17.4582C47.7883 17.2561 47.7408 17.0425 47.6096 16.8796L47.516 16.7632C47.3989 16.6737 47.254 16.6232 47.1027 16.6225C47.1026 16.6225 47.1026 16.6225 47.1025 16.6225L36.3823 16.6225H25.6615C25.0398 16.6231 24.4441 16.8683 24.0051 17.3038L24.0051 17.3039L21.7944 19.495L21.7943 19.4951C20.9852 20.295 19.8887 20.7431 18.7465 20.7411M47.7386 17.4584L18.7468 20.5911M47.7386 17.4584L41.7911 41.8579M47.7386 17.4584L41.9089 42.0079M18.7465 20.7411L18.7468 20.5911M18.7465 20.7411H18.7468V20.5911M18.7465 20.7411H8.77397M18.7468 20.5911H8.77384M8.77397 20.7411L8.77384 20.5911M8.77397 20.7411C8.07808 20.7417 7.47359 21.2121 7.30709 21.8795L7.307 21.8798L2.26789 41.8579M8.77397 20.7411H8.77384V20.5911M8.77384 20.5911L2.26789 41.8579M2.26789 41.8579H2.11319L7.16155 21.8432L2.26789 41.8579ZM2.26789 41.8579L2.23006 42.0079H41.9089M2.26789 41.8579H41.7911M41.7911 41.8579L41.7632 41.9724L41.9089 42.0079M41.7911 41.8579H41.9089V42.0079M15.1753 3.06141L15.1756 3.06173L17.8683 5.73059L17.869 5.73129C18.524 6.37191 19.4055 6.73297 20.325 6.73781H20.3258H40.9033C41.7398 6.73781 42.4155 7.40945 42.4155 8.23526V14.675H39.3912V10.7064C39.3912 10.1674 38.9506 9.7327 38.4101 9.7327H5.99804C5.4575 9.7327 5.01697 10.1674 5.01697 10.7064V22.9448L1.99266 34.935V4.11664C1.99266 3.29083 2.66836 2.61919 3.50481 2.61919H14.109C14.5098 2.62096 14.8931 2.7801 15.1753 3.06141ZM22.6196 14.675H22.4696V14.825V16.0721L20.4033 18.112L20.4032 18.112L20.3999 18.1155C20.3606 18.1569 20.3194 18.1964 20.2764 18.2339V14.825V14.675H20.1264H18.4642H18.3142V14.825V18.7937H16.121V14.825V14.675H15.971H14.3088H14.1588V14.825V18.7937H11.9656V14.825V14.675H11.8156H10.1534H10.0034V14.825V18.7937L8.77384 18.7937L8.77312 18.7937C8.13815 18.7967 7.51806 18.9722 6.97912 19.2986V11.6801H37.429V14.675L25.6613 14.675L25.6606 14.675C25.2435 14.6771 24.8293 14.7407 24.4318 14.8635V14.825V14.675H24.2818H22.6196Z" fill="#5988FF" stroke="#5988FF" stroke-width="0.3"/>
</svg>
